{
  "metadata": {
    "size": 7,
    "currentPage": 1,
    "totalPages": 2,
    "itemCount": 7,
    "total": 8
  },
  "items": [
    {
      "id": 9,
      "title": {
        "en": "",
        "ja": "",
        "ko": "웹사이트 점검 안내",
        "zhCn": "",
        "zhTw": ""
      },
      "content": {
        "en": "",
        "ja": "",
        "ko": "<p><span style=\"background-color: rgb(33, 33, 33); color: rgb(236, 236, 236);\">저희 웹사이트가 점검 중입니다. 불편을 드려 죄송하며, 조속히 복구하도록 하겠습니다.</span></p>",
        "zhCn": "",
        "zhTw": ""
      },
      "top": false,
      "pageView": 0,
      "type": "NOTICE",
      "createdTime": "2024-04-12T10:53:37.513Z",
      "createdBy": 6,
      "updatedTime": "2024-04-12T10:53:37.513Z",
      "updatedBy": 6,
      "categories": [
        {
          "id": 2,
          "name": {
            "en": "",
            "ja": "",
            "ko": "점검",
            "zhCn": "",
            "zhTw": ""
          },
          "type": "NOTICE",
          "orderBy": 2,
          "createdTime": "2024-04-12T10:51:25.967Z",
          "createdBy": 6,
          "updatedTime": "2024-04-12T10:51:25.967Z",
          "updatedBy": 6
        }
      ]
    },
    {
      "id": 8,
      "title": {
        "en": "",
        "ja": "",
        "ko": "이용 약관 변경 안내",
        "zhCn": "",
        "zhTw": ""
      },
      "content": {
        "en": "",
        "ja": "",
        "ko": "<p>저희 서비스의 이용 약관이 변경되었습니다. 변경된 사항을 확인하시고 동의해주세요.</p>",
        "zhCn": "",
        "zhTw": ""
      },
      "top": false,
      "pageView": 0,
      "type": "NOTICE",
      "createdTime": "2024-04-12T10:53:24.971Z",
      "createdBy": 6,
      "updatedTime": "2024-04-12T10:53:24.971Z",
      "updatedBy": 6,
      "categories": [
        {
          "id": 1,
          "name": {
            "en": "",
            "ja": "",
            "ko": "일반",
            "zhCn": "",
            "zhTw": ""
          },
          "type": "NOTICE",
          "orderBy": 1,
          "createdTime": "2024-04-12T10:51:19.801Z",
          "createdBy": 6,
          "updatedTime": "2024-04-12T10:51:19.801Z",
          "updatedBy": 6
        }
      ]
    },
    {
      "id": 7,
      "title": {
        "en": "",
        "ja": "",
        "ko": "코로나19 예방 수칙 안내",
        "zhCn": "",
        "zhTw": ""
      },
      "content": {
        "en": "",
        "ja": "",
        "ko": "<p>코로나19 예방을 위해 마스크 착용 및 손 소독을 권장합니다. 모두의 안전을 위해 협조 부탁드립니다.</p>",
        "zhCn": "",
        "zhTw": ""
      },
      "top": false,
      "pageView": 0,
      "type": "NOTICE",
      "createdTime": "2024-04-12T10:53:09.400Z",
      "createdBy": 6,
      "updatedTime": "2024-04-12T10:53:09.400Z",
      "updatedBy": 6,
      "categories": [
        {
          "id": 3,
          "name": {
            "en": "",
            "ja": "",
            "ko": "긴급",
            "zhCn": "",
            "zhTw": ""
          },
          "type": "NOTICE",
          "orderBy": 3,
          "createdTime": "2024-04-12T10:51:31.390Z",
          "createdBy": 6,
          "updatedTime": "2024-04-12T10:51:31.390Z",
          "updatedBy": 6
        }
      ]
    },
    {
      "id": 6,
      "title": {
        "en": "",
        "ja": "",
        "ko": "추석 연휴 배송 지연 안내",
        "zhCn": "",
        "zhTw": ""
      },
      "content": {
        "en": "",
        "ja": "",
        "ko": "<p>추석 연휴로 인해 배송이 지연될 수 있습니다. 양해 부탁드리며, 빠른 배송을 위해 노력하겠습니다.</p>",
        "zhCn": "",
        "zhTw": ""
      },
      "top": false,
      "pageView": 0,
      "type": "NOTICE",
      "createdTime": "2024-04-12T10:52:55.770Z",
      "createdBy": 6,
      "updatedTime": "2024-04-12T10:52:55.770Z",
      "updatedBy": 6,
      "categories": [
        {
          "id": 1,
          "name": {
            "en": "",
            "ja": "",
            "ko": "일반",
            "zhCn": "",
            "zhTw": ""
          },
          "type": "NOTICE",
          "orderBy": 1,
          "createdTime": "2024-04-12T10:51:19.801Z",
          "createdBy": 6,
          "updatedTime": "2024-04-12T10:51:19.801Z",
          "updatedBy": 6
        }
      ]
    },
    {
      "id": 5,
      "title": {
        "en": "",
        "ja": "",
        "ko": "서비스 업그레이드 안내",
        "zhCn": "",
        "zhTw": ""
      },
      "content": {
        "en": "",
        "ja": "",
        "ko": "<p>고객님의 편의를 위해 서비스를 업그레이드하였습니다. 새로운 기능들로 더욱 더 만족스러운 서비스를 제공해드릴 것을 약속드립니다.</p>",
        "zhCn": "",
        "zhTw": ""
      },
      "top": false,
      "pageView": 0,
      "type": "NOTICE",
      "createdTime": "2024-04-12T10:52:39.561Z",
      "createdBy": 6,
      "updatedTime": "2024-04-12T10:52:39.561Z",
      "updatedBy": 6,
      "categories": [
        {
          "id": 1,
          "name": {
            "en": "",
            "ja": "",
            "ko": "일반",
            "zhCn": "",
            "zhTw": ""
          },
          "type": "NOTICE",
          "orderBy": 1,
          "createdTime": "2024-04-12T10:51:19.801Z",
          "createdBy": 6,
          "updatedTime": "2024-04-12T10:51:19.801Z",
          "updatedBy": 6
        }
      ]
    },
    {
      "id": 4,
      "title": {
        "en": "",
        "ja": "",
        "ko": "공장 정비로 인한 생산 일시 중단 안내",
        "zhCn": "",
        "zhTw": ""
      },
      "content": {
        "en": "",
        "ja": "",
        "ko": "<p>저희 공장에서 예기치 못한 사고로 인해 생산이 일시 중단되었습니다. </p><p>조속한 복구를 위해 최선을 다하겠습니다.</p>",
        "zhCn": "",
        "zhTw": ""
      },
      "top": true,
      "pageView": 0,
      "type": "NOTICE",
      "createdTime": "2024-04-12T10:52:25.902Z",
      "createdBy": 6,
      "updatedTime": "2024-04-12T10:52:25.902Z",
      "updatedBy": 6,
      "categories": [
        {
          "id": 2,
          "name": {
            "en": "",
            "ja": "",
            "ko": "점검",
            "zhCn": "",
            "zhTw": ""
          },
          "type": "NOTICE",
          "orderBy": 2,
          "createdTime": "2024-04-12T10:51:25.967Z",
          "createdBy": 6,
          "updatedTime": "2024-04-12T10:51:25.967Z",
          "updatedBy": 6
        }
      ]
    },
    {
      "id": 3,
      "title": {
        "en": "",
        "ja": "",
        "ko": "신제품 출시 이벤트 안내",
        "zhCn": "",
        "zhTw": ""
      },
      "content": {
        "en": "",
        "ja": "",
        "ko": "<p>저희는 새로운 제품 출시를 기념하여 특별 이벤트를 준비했습니다. </p><p>자세한 내용은 공지를 참고해주세요!</p>",
        "zhCn": "",
        "zhTw": ""
      },
      "top": false,
      "pageView": 0,
      "type": "NOTICE",
      "createdTime": "2024-04-12T10:52:10.753Z",
      "createdBy": 6,
      "updatedTime": "2024-04-12T10:52:10.753Z",
      "updatedBy": 6,
      "categories": [
        {
          "id": 1,
          "name": {
            "en": "",
            "ja": "",
            "ko": "일반",
            "zhCn": "",
            "zhTw": ""
          },
          "type": "NOTICE",
          "orderBy": 1,
          "createdTime": "2024-04-12T10:51:19.801Z",
          "createdBy": 6,
          "updatedTime": "2024-04-12T10:51:19.801Z",
          "updatedBy": 6
        }
      ]
    }
  ]
}
